simulation/qsim/proj.msim.vcd
$comment
	File created using the following command:
		vcd file proj.msim.vcd -direction
$end
$date
	Thu Jun 06 21:20:39 2019
$end
$version
	ModelSim Version 10.1d
$end
$timescale
	1ps
$end
$scope module somador8_vlg_vec_tst $end
$var reg 8 ! A [7:0] $end
$var reg 8 " B [7:0] $end
$var reg 1 # Cin $end
$var wire 1 $ F [7] $end
$var wire 1 % F [6] $end
$var wire 1 & F [5] $end
$var wire 1 ' F [4] $end
$var wire 1 ( F [3] $end
$var wire 1 ) F [2] $end
$var wire 1 * F [1] $end
$var wire 1 + F [0] $end
$var wire 1 , Overflow $end
$var wire 1 - sampler $end
$scope module i1 $end
$var wire 1 . gnd $end
$var wire 1 / vcc $end
$var wire 1 0 unknown $end
$var tri1 1 1 devclrn $end
$var tri1 1 2 devpor $end
$var tri1 1 3 devoe $end
$var wire 1 4 Cin~combout $end
$var wire 1 5 inst5|Add0~0_combout $end
$var wire 1 6 inst14|tyutwervbga~0_combout $end
$var wire 1 7 inst6|Add1~0_combout $end
$var wire 1 8 inst23~0_combout $end
$var wire 1 9 inst7|Add1~0_combout $end
$var wire 1 : inst5|Add0~1_combout $end
$var wire 1 ; inst5|Add1~0_combout $end
$var wire 1 < inst5|Add1~1_combout $end
$var wire 1 = inst6|Add1~1_combout $end
$var wire 1 > inst12|tyutwervbga~0_combout $end
$var wire 1 ? inst3|Add1~0_combout $end
$var wire 1 @ inst5|Add1~2_combout $end
$var wire 1 A inst4|Add1~2_combout $end
$var wire 1 B inst|Add1~0_combout $end
$var wire 1 C inst1|Add1~0_combout $end
$var wire 1 D inst2|Add1~0_combout $end
$var wire 1 E inst3|Add1~1_combout $end
$var wire 1 F inst2|Add1~1_combout $end
$var wire 1 G inst1|Add1~1_combout $end
$var wire 1 H inst|Add0~0_combout $end
$var wire 1 I B~combout [7] $end
$var wire 1 J B~combout [6] $end
$var wire 1 K B~combout [5] $end
$var wire 1 L B~combout [4] $end
$var wire 1 M B~combout [3] $end
$var wire 1 N B~combout [2] $end
$var wire 1 O B~combout [1] $end
$var wire 1 P B~combout [0] $end
$var wire 1 Q A~combout [7] $end
$var wire 1 R A~combout [6] $end
$var wire 1 S A~combout [5] $end
$var wire 1 T A~combout [4] $end
$var wire 1 U A~combout [3] $end
$var wire 1 V A~combout [2] $end
$var wire 1 W A~combout [1] $end
$var wire 1 X A~combout [0] $end
$upscope $end
$upscope $end
$enddefinitions $end
#0
$dumpvars
b0 !
b0 "
0#
0>
0?
0@
0A
0B
0C
0D
0E
0F
0G
0H
0P
0O
0N
0M
0L
0K
0J
0I
0X
0W
0V
0U
0T
0S
0R
0Q
0+
0*
0)
0(
0'
0&
0%
0$
0,
x-
0.
1/
x0
11
12
13
04
05
06
07
08
09
0:
0;
0<
0=
$end
#5000
b1 !
b1 "
1P
1X
0-
1B
1G
1*
#10000
b11 !
b11 "
b10 !
b10 "
0P
1O
0X
1W
1-
0B
1C
0G
1F
0*
1)
#15000
b11 !
b11 "
1P
1X
0-
1B
1G
1*
#20000
b111 !
b111 "
b101 !
b101 "
b100 !
b100 "
0P
0O
1N
0X
0W
1V
1-
0B
0C
1D
0G
0F
1E
0*
0)
1(
#25000
b101 !
b101 "
1P
1X
0-
1B
1G
1*
#30000
b111 !
b111 "
b110 !
b110 "
0P
1O
0X
1W
1-
0B
1C
0G
1F
0*
1)
#35000
b111 !
b111 "
1P
1X
0-
1B
1G
1*
#40000
b1111 !
b1111 "
b1011 !
b1011 "
b1001 !
b1001 "
b1000 !
b1000 "
0P
0O
0N
1M
0X
0W
0V
1U
1-
0B
0C
0D
1?
1;
0G
0F
0E
1A
0*
0)
0(
1'
#45000
b1001 !
b1001 "
1P
1X
0-
1B
1G
1*
#50000
b1011 !
b1011 "
b1010 !
b1010 "
0P
1O
0X
1W
1-
0B
1C
0G
1F
0*
1)
#55000
b1011 !
b1011 "
1P
1X
0-
1B
1G
1*
#60000
b1111 !
b1111 "
b1101 !
b1101 "
b1100 !
b1100 "
0P
0O
1N
0X
0W
1V
1-
0B
0C
1D
0G
0F
1E
0*
0)
1(
#65000
b1101 !
b1101 "
1P
1X
0-
1B
1G
1*
#70000
b1111 !
b1111 "
b1110 !
b1110 "
0P
1O
0X
1W
1-
0B
1C
0G
1F
0*
1)
#75000
b1111 !
b1111 "
1P
1X
0-
1B
1G
1*
#80000
b11111 !
b11111 "
b10111 !
b10111 "
b10011 !
b10011 "
b10001 !
b10001 "
b10000 !
b10000 "
0P
0O
0N
0M
1L
0X
0W
0V
0U
1T
1-
0B
0C
0D
0?
0;
1>
1@
0G
0F
0E
0A
1&
0*
0)
0(
0'
#85000
b10001 !
b10001 "
1P
1X
0-
1B
1G
1*
#90000
b10011 !
b10011 "
b10010 !
b10010 "
0P
1O
0X
1W
1-
0B
1C
0G
1F
0*
1)
#95000
b10011 !
b10011 "
1P
1X
0-
1B
1G
1*
#100000
b10111 !
b10111 "
b10101 !
b10101 "
b10100 !
b10100 "
0P
0O
1N
0X
0W
1V
1-
0B
0C
1D
0G
0F
1E
0*
0)
1(
#105000
b10101 !
b10101 "
1P
1X
0-
1B
1G
1*
#110000
b10111 !
b10111 "
b10110 !
b10110 "
0P
1O
0X
1W
1-
0B
1C
0G
1F
0*
1)
#115000
b10111 !
b10111 "
1P
1X
0-
1B
1G
1*
#120000
b11111 !
b11111 "
b11011 !
b11011 "
b11001 !
b11001 "
b11000 !
b11000 "
0P
0O
0N
1M
0X
0W
0V
1U
1-
0B
0C
0D
1?
1;
0G
0F
0E
1A
0*
0)
0(
1'
#125000
b11001 !
b11001 "
1P
1X
0-
1B
1G
1*
#130000
b11011 !
b11011 "
b11010 !
b11010 "
0P
1O
0X
1W
1-
0B
1C
0G
1F
0*
1)
#135000
b11011 !
b11011 "
1P
1X
0-
1B
1G
1*
#140000
b11111 !
b11111 "
b11101 !
b11101 "
b11100 !
b11100 "
0P
0O
1N
0X
0W
1V
1-
0B
0C
1D
0G
0F
1E
0*
0)
1(
#145000
b11101 !
b11101 "
1P
1X
0-
1B
1G
1*
#150000
b11111 !
b11111 "
b11110 !
b11110 "
0P
1O
0X
1W
1-
0B
1C
0G
1F
0*
1)
#155000
b11111 !
b11111 "
1P
1X
0-
1B
1G
1*
#160000
b111111 !
b111111 "
b101111 !
b101111 "
b100111 !
b100111 "
b100011 !
b100011 "
b100001 !
b100001 "
b100000 !
b100000 "
0P
0O
0N
0M
0L
1K
0X
0W
0V
0U
0T
1S
1-
0B
0C
0D
0?
0;
0>
15
0G
0F
0E
0A
0@
1=
0*
0)
0(
0'
0&
1%
#165000
b100001 !
b100001 "
1P
1X
0-
1B
1G
1*
#170000
b100011 !
b100011 "
b100010 !
b100010 "
0P
1O
0X
1W
1-
0B
1C
0G
1F
0*
1)
#175000
b100011 !
b100011 "
1P
1X
0-
1B
1G
1*
#180000
b10100011 !
b101011 "
b10100111 !
b101111 "
b10100101 !
b10100100 !
1N
1M
0X
0W
1V
1Q
1-
1D
1E
1H
0B
0G
19
0E
1?
1;
1G
0C
1(
1+
0*
1$
1A
0F
0(
1*
1'
0)
#185000
b10100101 !
1X
0-
0H
1B
0G
1C
0+
1F
0*
1)
#190000
b10100111 !
b10100110 !
0X
1W
1-
1H
0B
1G
0G
1+
1*
0*
#195000
b10100111 !
1X
0-
0H
1B
1G
0+
1*
#200000
b10101111 !
b10101011 !
b10101001 !
b10101000 !
0X
0W
0V
1U
1-
1H
0B
0G
0F
1E
1G
0C
1+
0*
0)
1(
1F
0D
1*
0E
1)
0(
#205000
b10101001 !
1X
0-
0H
1B
0G
1C
0+
0F
1D
0*
1E
0)
1(
#210000
b10101011 !
b10101010 !
0X
1W
1-
1H
0B
1G
0G
1+
1*
0*
#215000
b10101011 !
1X
0-
0H
1B
1G
0+
1*
#220000
b10101111 !
b10101101 !
b10101100 !
0X
0W
1V
1-
1H
0B
0G
1F
1G
0C
1+
0*
1)
0F
1*
0)
#225000
b10101101 !
1X
0-
0H
1B
0G
1C
0+
1F
0*
1)
#230000
b10101111 !
b10101110 !
0X
1W
1-
1H
0B
1G
0G
1+
1*
0*
#235000
b10101111 !
1X
0-
0H
1B
1G
0+
1*
#240000
b10111111 !
b111111 "
b10110111 !
b10110011 !
b10110001 !
b10110000 !
1L
0X
0W
0V
0U
1T
1-
1>
1H
0B
0G
0F
0E
1@
1G
0C
1+
0*
0)
0(
1&
1F
0D
1*
1E
0?
0;
1)
0A
1(
0'
#245000
b10110001 !
1X
0-
0H
1B
0G
1C
0+
0F
1D
0*
0E
1?
1;
0)
1A
0(
1'
#250000
1#
b10110011 !
b10110010 !
14
0X
1W
1-
1F
1E
0D
0B
0A
0?
0>
0;
1:
09
18
16
05
1H
0E
1G
0C
1A
1)
1(
0'
0$
1,
1+
0F
0(
1*
1'
0)
#255000
b10110011 !
1X
0-
0H
1B
0G
1C
0+
1F
0*
1)
#260000
b10110111 !
b10110101 !
b10110100 !
0X
0W
1V
1-
1H
0B
1G
0C
0F
1D
0G
1F
0D
1E
1+
1*
0)
0E
0*
1)
1(
0(
#265000
b10110101 !
1X
0-
0H
1B
1G
0+
1*
#270000
b10110111 !
b10110110 !
0X
1W
1-
1H
0B
0G
1C
1G
0C
0F
1D
1+
0*
1F
0D
1E
1*
0)
0E
1)
1(
0(
#275000
b10110111 !
1X
0-
0H
1B
0G
1C
0+
0F
1D
0*
1E
0)
1(
#280000
b10111111 !
b10111011 !
b10111001 !
b10111000 !
0X
0W
0V
1U
1-
1H
0B
1G
0C
1F
0D
0E
1?
1;
0G
0F
1E
0?
0;
0A
0@
1<
1+
1*
1)
0(
1A
1@
0<
0=
17
0*
0)
1(
0'
0&
1=
07
19
08
1'
1&
0%
09
18
1%
1$
0,
0$
1,
#285000
b10111001 !
1X
0-
0H
1B
1G
0+
1*
#290000
b10111011 !
b10111010 !
0X
1W
1-
1H
0B
0G
1C
1G
0C
1F
1+
0*
0F
1*
1)
0)
#295000
b10111011 !
1X
0-
0H
1B
0G
1C
0+
1F
0*
1)
#300000
b10111111 !
b10111101 !
b10111100 !
0X
0W
1V
1-
1H
0B
1G
0C
0F
1D
0G
1F
0D
0E
1?
1;
1+
1*
0)
1E
0?
0;
0A
0@
1<
0*
1)
0(
1A
1@
0<
0=
17
1(
0'
0&
1=
07
19
08
1'
1&
0%
09
18
1%
1$
0,
0$
1,
#305000
b10111101 !
1X
0-
0H
1B
1G
0+
1*
#310000
b10111111 !
b10111110 !
0X
1W
1-
1H
0B
0G
1C
1G
0C
0F
1D
1+
0*
1F
0D
0E
1?
1;
1*
0)
1E
0?
0;
0A
0@
1<
1)
0(
1A
1@
0<
0=
17
1(
0'
0&
1=
07
19
08
1'
1&
0%
09
18
1%
1$
0,
0$
1,
#315000
b10111111 !
1X
0-
0H
1B
0G
1C
0+
0F
1D
0*
0E
1?
1;
0)
0A
0@
1<
0(
0=
17
0'
0&
19
08
0%
1$
0,
#320000
b11111111 !
b1111111 "
b11011111 !
b1011111 "
b11001111 !
b1001111 "
b11000111 !
b11000011 !
b11000001 !
b11000000 !
0L
0K
1J
0X
0W
0V
0U
0T
0S
1R
1-
1>
06
1H
0B
1G
0C
1F
0D
1E
0?
0;
1@
0<
1=
07
0G
0F
0E
1A
1+
1*
1)
1(
1&
1%
09
18
0*
0)
0(
1'
0$
1,
#325000
b11000001 !
1X
0-
0H
1B
1G
0+
1*
#330000
b11000011 !
b11000010 !
0X
1W
1-
1H
0B
0G
1C
1G
0C
1F
1+
0*
0F
1*
1)
0)
#335000
b11000011 !
1X
0-
0H
1B
0G
1C
0+
1F
0*
1)
#340000
b11000111 !
b11000101 !
b11000100 !
0X
0W
1V
1-
1H
0B
1G
0C
0F
1D
0G
1F
0D
1E
1+
1*
0)
0E
0*
1)
1(
0(
#345000
b11000101 !
1X
0-
0H
1B
1G
0+
1*
#350000
b11000111 !
b11000110 !
0X
1W
1-
1H
0B
0G
1C
1G
0C
0F
1D
1+
0*
1F
0D
1E
1*
0)
0E
1)
1(
0(
#355000
b11000111 !
1X
0-
0H
1B
0G
1C
0+
0F
1D
0*
1E
0)
1(
#360000
b1001101 "
b1001100 "
b1000111 !
b1001000 "
b1001111 !
b1001011 !
b1001001 !
b1001000 !
0X
0W
0V
1U
0Q
0P
0O
0N
1-
0E
1?
1;
19
08
0A
0@
1<
0(
1$
0,
0=
17
0'
0&
09
0%
0$
#365000
b1001001 "
b1001001 !
1X
1P
0-
#370000
b1001011 "
b1001011 !
b1001010 "
b1001010 !
0X
1W
0P
1O
1-
#375000
b1001011 "
b1001011 !
1X
1P
0-
#380000
b1001111 "
b1001111 !
b1001101 "
b1001101 !
b1001100 "
b1001100 !
0X
0W
1V
0P
0O
1N
1-
#385000
b1001101 "
b1001101 !
1X
1P
0-
#390000
b1001111 "
b1001111 !
b1001110 "
b1001110 !
0X
1W
0P
1O
1-
#395000
b1001111 "
b1001111 !
1X
1P
0-
#400000
b1000111 "
b1011111 !
b1010111 "
b1010111 !
b1010011 "
b1010011 !
b1010001 "
b1010001 !
b1010000 "
b1010000 !
0X
0W
0V
0U
1T
0P
0O
0N
0M
1L
1-
0>
#405000
b1010001 "
b1010001 !
1X
1P
0-
#410000
b1010011 "
b1010011 !
b1010010 "
b1010010 !
0X
1W
0P
1O
1-
#415000
b1010011 "
b1010011 !
1X
1P
0-
#420000
b1010111 "
b1010111 !
b1010101 "
b1010101 !
b1010100 "
b1010100 !
0X
0W
1V
0P
0O
1N
1-
#425000
b1010101 "
b1010101 !
1X
1P
0-
#430000
b1010111 "
b1010111 !
b1010110 "
b1010110 !
0X
1W
0P
1O
1-
#435000
b1010111 "
b1010111 !
1X
1P
0-
#440000
b1011111 "
b1011111 !
b1011011 "
b1011011 !
b1011001 "
b1011001 !
b1011000 "
b1011000 !
0X
0W
0V
1U
0P
0O
0N
1M
1-
#445000
b1011001 "
b1011001 !
1X
1P
0-
#450000
b1011011 "
b1011011 !
b1011010 "
b1011010 !
0X
1W
0P
1O
1-
#455000
b1011011 "
b1011011 !
1X
1P
0-
#460000
b1011111 "
b1011111 !
b1011101 "
b1011101 !
b1011100 "
b1011100 !
0X
0W
1V
0P
0O
1N
1-
#465000
b1011101 "
b1011101 !
1X
1P
0-
#470000
b1011111 "
b1011111 !
b1011110 "
b1011110 !
0X
1W
0P
1O
1-
#475000
b1011111 "
b1011111 !
1X
1P
0-
#480000
b1111111 !
b1111111 "
b1101111 !
b1101111 "
b1100111 "
b1100111 !
b1100011 "
b1100011 !
b1100001 "
b1100001 !
b1100000 "
b1100000 !
0P
0O
0N
0M
0L
1K
0X
0W
0V
0U
0T
1S
1-
1>
1@
0<
0@
1<
1=
07
1&
0=
17
19
0&
1%
09
0%
1$
0$
#485000
b1100001 "
b1100001 !
1X
1P
0-
#490000
b1100011 "
b1100011 !
b1100010 "
b1100010 !
0X
1W
0P
1O
1-
#495000
b1100011 "
b1100011 !
1X
1P
0-
#500000
0#
b1100111 "
b1100111 !
b1100101 "
b1100101 !
b1100100 "
b1100100 !
04
0X
0W
1V
0P
0O
1N
1-
1G
1F
1E
0C
0B
1A
0?
0>
0;
0:
19
18
16
15
0F
0G
0A
0<
1=
1*
1)
1(
1'
1$
1,
0)
0*
0'
1%
#505000
b1100101 "
b1100101 !
1X
1P
0-
1B
1G
1*
#510000
b1100111 "
b1100111 !
b1100110 "
b1100110 !
0X
1W
0P
1O
1-
0B
1C
0G
1F
0*
1)
#515000
b1100111 "
b1100111 !
1X
1P
0-
1B
1G
1*
#520000
b1101111 "
b1101111 !
b1101011 "
b1101011 !
b1101001 "
b1101001 !
b1101000 "
b1101000 !
0X
0W
0V
1U
0P
0O
0N
1M
1-
0B
0C
0D
1?
1;
0G
0F
0E
1A
0*
0)
0(
1'
#525000
b1101001 "
b1101001 !
1X
1P
0-
1B
1G
1*
#530000
b1100001 "
b1101011 !
b1100000 "
b1101010 !
0X
1W
0P
0M
1-
0B
0G
1C
1E
0?
0;
1G
0C
1F
0A
0*
1(
0F
1*
1)
0'
0)
#535000
b1100001 "
b1101011 !
1X
1P
0-
1B
0G
1C
1F
0*
1)
#540000
b1101111 !
b1101101 !
b1100000 "
b1101100 !
0P
0X
0W
1V
1-
0B
1G
0C
0F
1D
0G
1F
0D
0E
1?
1;
1*
0)
1E
0?
0;
1A
0*
1)
0(
0A
1(
1'
0'
#545000
b1100001 "
b1101101 !
1X
1P
0-
1B
1G
1*
#550000
b1101111 !
b1100000 "
b1101110 !
0P
0X
1W
1-
0B
0G
1C
1G
0C
0F
1D
0*
1F
0D
0E
1?
1;
1*
0)
1E
0?
0;
1A
1)
0(
0A
1(
1'
0'
#555000
b1100001 "
b1101111 !
1X
1P
0-
1B
0G
1C
0F
1D
0*
0E
1?
1;
0)
1A
0(
1'
#560000
b1111111 !
b1110001 "
b1110111 !
b1110011 !
b1110001 !
b1110000 "
b1110000 !
0P
1L
0X
0W
0V
0U
1T
1-
0B
1>
1G
0C
1F
0D
1E
0?
0;
1@
0G
0F
0E
0A
1*
1)
1(
1&
0*
0)
0(
0'
#565000
b1110001 "
b1110001 !
1X
1P
0-
1B
1G
1*
#570000
b1110011 !
b1110000 "
b1110010 !
0P
0X
1W
1-
0B
0G
1C
1G
0C
1F
0*
0F
1*
1)
0)
#575000
b1110001 "
b1110011 !
1X
1P
0-
1B
0G
1C
1F
0*
1)
#580000
b1110111 !
b1110101 !
b1110000 "
b1110100 !
0P
0X
0W
1V
1-
0B
1G
0C
0F
1D
0G
1F
0D
1E
1*
0)
0E
0*
1)
1(
0(
#585000
b1110001 "
b1110101 !
1X
1P
0-
1B
1G
1*
#590000
b1110101 "
b1110111 "
b1110111 !
b1110110 "
b1110110 !
0X
1W
0P
1O
1N
1-
0B
1C
0F
1D
0G
1F
1E
0)
0*
1)
1(
#595000
b1110111 "
b1110111 !
1X
1P
0-
1B
1G
1*
#600000
b1111111 "
b1111111 !
b1111011 !
b1111011 "
b1111001 "
b1111001 !
b1111000 "
b1111000 !
0X
0W
0V
1U
0P
0O
0N
1M
1-
0B
0C
0D
1?
1;
0G
0F
0E
1A
0*
0)
0(
1'
#605000
b1111001 "
b1111001 !
1X
1P
0-
1B
1G
1*
#610000
b1111011 "
b1111011 !
b1111010 "
b1111010 !
0X
1W
0P
1O
1-
0B
1C
0G
1F
0*
1)
#615000
b1111011 "
b1111011 !
1X
1P
0-
1B
1G
1*
#620000
b1111111 !
b1111111 "
b1111101 "
b1111101 !
b1111100 "
b1111100 !
0P
0O
1N
0X
0W
1V
1-
0B
0C
1D
0G
0F
1E
0*
0)
1(
#625000
b1111101 "
b1111101 !
1X
1P
0-
1B
1G
1*
#630000
b1111111 "
b1111111 !
b1111110 "
b1111110 !
0X
1W
0P
1O
1-
0B
1C
0G
1F
0*
1)
#635000
b1111111 "
b1111111 !
1X
1P
0-
1B
1G
1*
#640000
b11111111 "
b111111 !
b10111111 "
b10111111 !
b10011111 !
b10011111 "
b10001111 !
b10001111 "
b10000111 "
b10000111 !
b10000011 !
b10000011 "
b10000001 "
b10000001 !
b10000000 "
b10000000 !
0X
0W
0V
0U
0T
0S
0R
1Q
0P
0O
0N
0M
0L
0K
0J
1I
1-
0B
0C
0D
0?
0;
05
0=
08
0>
06
0G
0F
0E
0A
0@
07
0%
0,
09
18
0*
0)
0(
0'
0&
0$
1,
#645000
b10000001 "
b10000001 !
1X
1P
0-
1B
1G
1*
#650000
b10000011 "
b10000011 !
b10000010 "
b10000010 !
0X
1W
0P
1O
1-
0B
1C
0G
1F
0*
1)
#655000
b10000011 "
b10000011 !
1X
1P
0-
1B
1G
1*
#660000
b10000111 !
b10000111 "
b10000101 "
b10000101 !
b10000100 "
b10000100 !
0P
0O
1N
0X
0W
1V
1-
0B
0C
1D
0G
0F
1E
0*
0)
1(
#665000
b10000101 "
b10000101 !
1X
1P
0-
1B
1G
1*
#670000
b10000111 "
b10000111 !
b10000110 "
b10000110 !
0X
1W
0P
1O
1-
0B
1C
0G
1F
0*
1)
#675000
b10000111 "
b10000111 !
1X
1P
0-
1B
1G
1*
#680000
b10001111 "
b10001111 !
b10001011 !
b10001011 "
b10001001 "
b10001001 !
b10001000 "
b10001000 !
0X
0W
0V
1U
0P
0O
0N
1M
1-
0B
0C
0D
1?
1;
0G
0F
0E
1A
0*
0)
0(
1'
#685000
b10001001 "
b10001001 !
1X
1P
0-
1B
1G
1*
#690000
b10001011 "
b10001011 !
b10001010 "
b10001010 !
0X
1W
0P
1O
1-
0B
1C
0G
1F
0*
1)
#695000
b10001011 "
b10001011 !
1X
1P
0-
1B
1G
1*
#700000
b10001111 !
b10001111 "
b10001101 "
b10001101 !
b10001100 "
b10001100 !
0P
0O
1N
0X
0W
1V
1-
0B
0C
1D
0G
0F
1E
0*
0)
1(
#705000
b10001101 "
b10001101 !
1X
1P
0-
1B
1G
1*
#710000
b10001111 "
b10001111 !
b10001110 "
b10001110 !
0X
1W
0P
1O
1-
0B
1C
0G
1F
0*
1)
#715000
b10001111 "
b10001111 !
1X
1P
0-
1B
1G
1*
#720000
b10011111 !
b10011111 "
b10010111 "
b10010111 !
b10010011 !
b10010011 "
b10010001 "
b10010001 !
b10010000 "
b10010000 !
0P
0O
0N
0M
1L
0X
0W
0V
0U
1T
1-
0B
0C
0D
0?
0;
1>
1@
0G
0F
0E
0A
1&
0*
0)
0(
0'
#725000
b10010001 "
b10010001 !
1X
1P
0-
1B
1G
1*
#730000
b10010011 "
b10010011 !
b10010010 "
b10010010 !
0X
1W
0P
1O
1-
0B
1C
0G
1F
0*
1)
#735000
b10010011 "
b10010011 !
1X
1P
0-
1B
1G
1*
#740000
b10011011 "
b10010111 !
b10011111 "
b10010101 !
b10011110 "
b10010100 !
0X
0W
1V
0P
1N
1M
1-
0B
0G
1D
1E
1G
0C
0E
1?
1;
0*
1(
0F
1A
1*
0(
0)
1'
#745000
b10011111 "
b10010101 !
1X
1P
0-
1B
0G
1C
1F
0*
1)
#750000
1#
b10010111 !
b10011110 "
b10010110 !
14
0P
0X
1W
1-
0F
1E
0A
0?
0>
0;
1:
19
08
16
1A
1=
0)
1(
0'
1$
0,
1'
1%
#755000
b10011111 "
b10010111 !
1X
1P
0-
#760000
b10011111 !
b10011011 !
b10011001 !
b10011110 "
b10011000 !
0P
0X
0W
0V
1U
1-
1G
0C
1F
0D
0E
1?
1;
0F
1E
0?
0;
0A
0@
1<
1*
1)
0(
1A
1@
0<
0=
17
0)
1(
0'
0&
1=
07
09
1'
1&
0%
19
1%
0$
1$
#765000
b10011111 "
b10011001 !
1X
1P
0-
#770000
b10011011 !
b10011110 "
b10011010 !
0P
0X
1W
1-
0G
1C
1F
0*
1)
#775000
b10011111 "
b10011011 !
1X
1P
0-
#780000
b10011111 !
b10011101 !
b10011110 "
b10011100 !
0P
0X
0W
1V
1-
1G
0C
0F
1D
1F
0D
0E
1?
1;
1*
0)
1E
0?
0;
0A
0@
1<
1)
0(
1A
1@
0<
0=
17
1(
0'
0&
1=
07
09
1'
1&
0%
19
1%
0$
1$
#785000
b10011111 "
b10011101 !
1X
1P
0-
#790000
b10011111 !
b10011110 "
b10011110 !
0P
0X
1W
1-
0G
1C
0F
1D
0*
0E
1?
1;
0)
0A
0@
1<
0(
0=
17
0'
0&
09
0%
0$
#795000
b10011111 "
b10011111 !
1X
1P
0-
#800000
b10111111 !
b10111111 "
b10101111 !
b10100111 !
b10100011 !
b10100001 !
b10111110 "
b10100000 !
0P
1K
0X
0W
0V
0U
0T
1S
1-
1G
0C
1F
0D
1E
0?
0;
1A
1@
0<
0F
0E
0A
1=
07
1*
1)
1(
1'
1&
19
0)
0(
0'
1%
1$
#805000
b10111111 "
b10100001 !
1X
1P
0-
#810000
b10100011 !
b10111110 "
b10100010 !
0P
0X
1W
1-
0G
1C
1F
0*
1)
#815000
b10111111 "
b10100011 !
1X
1P
0-
#820000
b10101111 "
b10101101 "
b10100101 "
b10100111 !
b10100101 !
b10100100 "
b10100100 !
0X
0W
1V
0P
0O
0M
0L
1-
0F
1D
1E
1A
1>
0E
1?
1;
0)
1(
1'
0A
0@
1<
0(
0=
17
0'
0&
09
0%
0$
#825000
b10100101 "
b10100101 !
1X
1P
0-
#830000
b10100111 "
b10100111 !
b10100110 "
b10100110 !
0X
1W
0P
1O
1-
#835000
b10100111 "
b10100111 !
1X
1P
0-
#840000
b10100011 "
b10101111 !
b10101011 "
b10101011 !
b10101001 "
b10101001 !
b10101000 "
b10101000 !
0X
0W
0V
1U
0P
0O
0N
1M
1-
#845000
b10101001 "
b10101001 !
1X
1P
0-
#850000
b10101011 "
b10101011 !
b10101010 "
b10101010 !
0X
1W
0P
1O
1-
#855000
b10101011 "
b10101011 !
1X
1P
0-
#860000
b10101111 "
b10101111 !
b10101101 "
b10101101 !
b10101100 "
b10101100 !
0X
0W
1V
0P
0O
1N
1-
#865000
b10101101 "
b10101101 !
1X
1P
0-
#870000
b10101111 "
b10101111 !
b10101110 "
b10101110 !
0X
1W
0P
1O
1-
#875000
b10101111 "
b10101111 !
1X
1P
0-
#880000
b10111111 !
b10111111 "
b10110111 !
b10110111 "
b10110011 "
b10110011 !
b10110001 "
b10110001 !
b10110000 "
b10110000 !
0P
0O
0N
0M
1L
0X
0W
0V
0U
1T
1-
0>
#885000
b10110001 "
b10110001 !
1X
1P
0-
#890000
b10110011 "
b10110011 !
b10110010 "
b10110010 !
0X
1W
0P
1O
1-
#895000
b10110011 "
b10110011 !
1X
1P
0-
#900000
b10110111 "
b10110111 !
b10110101 "
b10110101 !
b10110100 "
b10110100 !
0X
0W
1V
0P
0O
1N
1-
#905000
b10110101 "
b10110101 !
1X
1P
0-
#910000
b10110111 "
b10110111 !
b10110110 "
b10110110 !
0X
1W
0P
1O
1-
#915000
b10110111 "
b10110111 !
1X
1P
0-
#920000
b10111111 !
b10111111 "
b10111011 "
b10111011 !
b10111001 "
b10111001 !
b10111000 "
b10111000 !
0P
0O
0N
1M
0X
0W
0V
1U
1-
#925000
b10111001 "
b10111001 !
1X
1P
0-
#930000
b10111011 "
b10111011 !
b10111010 "
b10111010 !
0X
1W
0P
1O
1-
#935000
b10111011 "
b10111011 !
1X
1P
0-
#940000
b10111111 "
b10111111 !
b10111101 "
b10111101 !
b10111100 "
b10111100 !
0X
0W
1V
0P
0O
1N
1-
#945000
b10111101 "
b10111101 !
1X
1P
0-
#950000
b10111111 "
b10111111 !
b10111110 "
b10111110 !
0X
1W
0P
1O
1-
#955000
b10111111 "
b10111111 !
1X
1P
0-
#960000
b11111111 !
b11111111 "
b11011111 !
b11011111 "
b11001111 !
b11001111 "
b11000111 !
b11000111 "
b11000011 "
b11000011 !
b11000001 "
b11000001 !
b11000000 "
b11000000 !
0P
0O
0N
0M
0L
0K
1J
0X
0W
0V
0U
0T
0S
1R
1-
1>
06
1@
0<
1=
0@
1<
07
1&
1%
0=
17
19
0&
09
0%
1$
0$
#965000
b11000001 "
b11000001 !
1X
1P
0-
#970000
b11000011 "
b11000011 !
b11000010 "
b11000010 !
0X
1W
0P
1O
1-
#975000
b11000011 "
b11000011 !
1X
1P
0-
#980000
b11000111 "
b11000111 !
b11000101 "
b11000101 !
b11000100 "
b11000100 !
0X
0W
1V
0P
0O
1N
1-
#985000
b11000101 "
b11000101 !
1X
1P
0-
#990000
b11000111 "
b11000111 !
b11000110 "
b11000110 !
0X
1W
0P
1O
1-
#995000
b11000111 "
b11000111 !
1X
1P
0-
